…
## カテゴリデータの例

地価公示価格データは多くのカテゴリ変数をもっています。

{:.input_area}
```R
df_lp_kanto %>% 
  select_if(is.character)
```

    ## # A tibble: 8,476 x 14
    ##    .prefecture administrative_… name_of_nearest… current_use
    ##    <chr>       <chr>            <chr>            <chr>      
    ##  1 群馬県      10425            万座・鹿沢口     住宅,その他
    ##  2 群馬県      10426            長野原草津口     住宅       
    ##  3 群馬県      10426            長野原草津口     店舗       
    ##  4 群馬県      10424            羽根尾           住宅,その他
    ##  5 群馬県      10424            羽根尾           住宅       
    ##  6 群馬県      10426            長野原草津口     住宅       
    ##  7 群馬県      10424            群馬大津         住宅,店舗  
    ##  8 群馬県      10382            下仁田           住宅       
    ##  9 群馬県      10382            下仁田           住宅,店舗,事務所…
    ## 10 群馬県      10382            下仁田           住宅       
    ## # … with 8,466 more rows, and 10 more variables: usage_description <chr>,
    ## #   building_structure <chr>,
    ## #   proximity_with_transportation_facility <chr>, use_district <chr>,
    ## #   configuration <chr>, surrounding_present_usage <chr>, fire_area <chr>,
    ## #   urban_planning_area <chr>, forest_law <chr>, parks_law <chr>

土砂災害・雪崩メッシュデータにはカテゴリ変数として6つの変数が含まれます。都道府県名
(`prefecture`)、発生場所を示す市区町村名(`cityName`) 、災害の種類
(`hazardType`) 、災害の種類の詳細 (`hazardType_sub`)、勾配 (`inclination`)、メッシュコード
(`meshcode`)の6つです。ここではこれらのデータへの特徴量エンジニアリングを試みることにします。

{:.input_area}
```R
# データフレームの文字列の列を選択します
df_hazard %>% 
  select_if(is.character)
```

    ## # A tibble: 4,315 x 6
    ##    prefectureName cityName   hazardType hazardType_sub inclination meshCode
    ##    <chr>          <chr>      <chr>      <chr>          <chr>       <chr>   
    ##  1 沖縄県         名護市     がけ崩れ   <NA>           <NA>        3927771 
    ##  2 沖縄県         豊見城市   がけ崩れ   <NA>           <NA>        3927252 
    ##  3 沖縄県         豊見城市   がけ崩れ   <NA>           <NA>        3927251 
    ##  4 沖縄県         那覇市     がけ崩れ   <NA>           <NA>        3927252 
    ##  5 沖縄県         中頭郡中城村… がけ崩れ   <NA>           <NA>        3927263 
    ##  6 沖縄県         浦添市     がけ崩れ   <NA>           <NA>        3927254 
    ##  7 沖縄県         国頭郡本部町… がけ崩れ   <NA>           <NA>        3927774 
    ##  8 沖縄県         糸満市     がけ崩れ   <NA>           <NA>        3927154 
    ##  9 沖縄県         豊見城市   がけ崩れ   <NA>           <NA>        3927251 
    ## 10 沖縄県         豊見城市   がけ崩れ   <NA>           <NA>        3927251 
    ## # … with 4,305 more rows
…
続いて勾配 (`inclination`)です。勾配は連続変数として数値化が可能なように見えます。このことは覚えておきましょう。

{:.input_area}
```R
df_hazard %>% 
  count(inclination)
```

    ## # A tibble: 129 x 2
    ##    inclination     n
    ##    <chr>       <int>
    ##  1 0               1
    ##  2 1/0.1           1
    ##  3 1/0.2           1
    ##  4 1/1.35          1
    ##  5 1/10           28
    ##  6 1/11            4
    ##  7 1/12           10
    ##  8 1/13            2
    ##  9 1/14            2
    ## 10 1/15            3
    ## # … with 119 more rows

ビールの支出データについては、カテゴリ変数は当日の日中の天候を記録した `weatherdaytime_06_00_18_00` のみです。

{:.input_area}
```R
df_beer2018q2 %>% 
  count(weatherdaytime_06_00_18_00)
```

    ## # A tibble: 33 x 2
    ##    weatherdaytime_06_00_18_00     n
    ##    <chr>                      <int>
    ##  1 雨                             2
    ##  2 雨一時曇                       3
    ##  3 雨後一時曇                     1
    ##  4 雨後時々曇                     1
    ##  5 雨後曇                         2
    ##  6 雨後曇一時晴                   1
    ##  7 雨時々曇                       4
    ##  8 快晴                           2
    ##  9 晴                            12
    ## 10 晴一時雨、雷を伴う             1
    ## # … with 23 more rows
…
    ## Warning: All elements of `...` must be named.
    ## Did you want `data = c(type, role, source)`?
    
    ## Warning: All elements of `...` must be named.
    ## Did you want `data = c(type, role, source)`?

{:.input_area}
```R
df_lp_kanto_dummy_baked
```

    ## # A tibble: 8,476 x 4
    ##    posted_land_price urban_planning_ar… urban_planning_a… urban_planning_a…
    ##                <int>              <dbl>             <dbl>             <dbl>
    ##  1              4150                  0                 1                 0
    ##  2             39000                  0                 0                 1
    ##  3             56800                  0                 0                 1
    ##  4              2700                  0                 0                 1
    ##  5             12100                  0                 0                 1
    ##  6             29800                  0                 0                 1
    ##  7             16400                  0                 0                 1
    ##  8             17400                  0                 0                 1
    ##  9             25500                  0                 0                 1
    ## 10             23300                  0                 0                 1
    ## # … with 8,466 more rows
…
    ## Warning: All elements of `...` must be named.
    ## Did you want `data = c(type, role, source)`?
    
    ## Warning: All elements of `...` must be named.
    ## Did you want `data = c(type, role, source)`?

    ## # A tibble: 8,476 x 4
    ##    urban_planning_ar… urban_planning_a… urban_planning_a… urban_planning_a…
    ##                 <dbl>             <dbl>             <dbl>             <dbl>
    ##  1                  0                 0                 1                 0
    ##  2                  0                 0                 0                 1
    ##  3                  0                 0                 0                 1
    ##  4                  0                 0                 0                 1
    ##  5                  0                 0                 0                 1
    ##  6                  0                 0                 0                 1
    ##  7                  0                 0                 0                 1
    ##  8                  0                 0                 0                 1
    ##  9                  0                 0                 0                 1
    ## 10                  0                 0                 0                 1
    ## # … with 8,466 more rows
…
    ## Warning: All elements of `...` must be named.
    ## Did you want `data = c(type, role, source)`?
    
    ## Warning: All elements of `...` must be named.
    ## Did you want `data = c(type, role, source)`?

    ## # A tibble: 28 x 2
    ##    meshCode     n
    ##    <fct>    <int>
    ##  1 4730243     21
    ##  2 4730341     16
    ##  3 4830732     10
    ##  4 4929652     18
    ##  5 5131043     21
    ##  6 5131044     14
    ##  7 5131122     15
    ##  8 5131141     13
    ##  9 5131142     15
    ## 10 5232354     10
    ## # … with 18 more rows
…
XOR

### Expansion encoding

一つの特徴量から複数の特徴量を生成します。カテゴリ変数の値の分割がこれに当たります。テキストから必要な情報の取得する、空白があるとデータを区切る、など処理の方法はさまざまです。

ビールの支出データに含まれるweatherdaytime\_06\_00\_18\_00には、「晴」や「曇」だけでなく「曇一時雨」や「雨後時々曇」といった気象に関する項目が含まれます。項目の組み合わせによる表現が可能であるため、カテゴリの数は多くなっています。

{:.input_area}
```R
df_beer2018q2 %>% 
  count(weatherdaytime_06_00_18_00)
```

    ## # A tibble: 33 x 2
    ##    weatherdaytime_06_00_18_00     n
    ##    <chr>                      <int>
    ##  1 雨                             2
    ##  2 雨一時曇                       3
    ##  3 雨後一時曇                     1
    ##  4 雨後時々曇                     1
    ##  5 雨後曇                         2
    ##  6 雨後曇一時晴                   1
    ##  7 雨時々曇                       4
    ##  8 快晴                           2
    ##  9 晴                            12
    ## 10 晴一時雨、雷を伴う             1
    ## # … with 23 more rows
…
    ## Warning: Expected 2 pieces. Additional pieces discarded in 6 rows [9, 12,
    ## 42, 62, 65, 79].

    ## Warning: Expected 2 pieces. Missing pieces filled with `NA` in 30 rows
    ## [1, 2, 3, 7, 8, 11, 13, 15, 16, 18, 20, 25, 32, 34, 36, 39, 43, 46, 47,
    ## 48, ...].

{:.input_area}
```R
df_beer2018q2_baked
```

    ## # A tibble: 92 x 4
    ##    date       expense weatherdaytime_06_00_18_00… weatherdaytime_06_00_18_…
    ##    <date>       <dbl> <chr>                       <chr>                    
    ##  1 2018-07-01    58.0 晴                          <NA>                     
    ##  2 2018-07-02    42.8 快晴                        <NA>                     
    ##  3 2018-07-03    23.9 薄曇                        <NA>                     
    ##  4 2018-07-04    28.6 曇                          雨                       
    ##  5 2018-07-05    35.4 雨                          曇                       
    ##  6 2018-07-06    29.1 雨                          曇                       
    ##  7 2018-07-07    53.9 曇                          <NA>                     
    ##  8 2018-07-08    61.6 薄曇                        <NA>                     
    ##  9 2018-07-09    38.4 晴                          曇                       
    ## 10 2018-07-10    33.1 晴                          薄曇                     
    ## # … with 82 more rows
…
