…
    ## Warning: All elements of `...` must be named.
    ## Did you want `data = c(type, role, source)`?
    
    ## Warning: All elements of `...` must be named.
    ## Did you want `data = c(type, role, source)`?

    ## # A tibble: 92 x 11
    ##    date_dow_月 date_dow_火 date_dow_水 date_dow_木 date_dow_金 date_dow_土
    ##          <dbl>       <dbl>       <dbl>       <dbl>       <dbl>       <dbl>
    ##  1           0           0           0           0           0           0
    ##  2           1           0           0           0           0           0
    ##  3           0           1           0           0           0           0
    ##  4           0           0           1           0           0           0
    ##  5           0           0           0           1           0           0
    ##  6           0           0           0           0           1           0
    ##  7           0           0           0           0           0           1
    ##  8           0           0           0           0           0           0
    ##  9           1           0           0           0           0           0
    ## 10           0           1           0           0           0           0
    ## # … with 82 more rows, and 5 more variables: date <date>,
    ## #   weatherdaytime_06_00_18_00 <fct>, expense <dbl>, date_month <fct>,
    ## #   date_year <dbl>
…
    ## Warning: All elements of `...` must be named.
    ## Did you want `data = c(type, role, source)`?
    
    ## Warning: All elements of `...` must be named.
    ## Did you want `data = c(type, role, source)`?

{:.input_area}
```R
df_beer_prep
```

    ## # A tibble: 92 x 6
    ##    date       temperature_average expense date_dow date_month date_year
    ##    <date>                   <dbl>   <dbl> <fct>    <fct>          <dbl>
    ##  1 2018-07-01                28.1    58.0 日       " 7"            2018
    ##  2 2018-07-02                28.8    42.8 月       " 7"            2018
    ##  3 2018-07-03                28.4    23.9 火       " 7"            2018
    ##  4 2018-07-04                27.6    28.6 水       " 7"            2018
    ##  5 2018-07-05                26.7    35.4 木       " 7"            2018
    ##  6 2018-07-06                21.7    29.1 金       " 7"            2018
    ##  7 2018-07-07                25      53.9 土       " 7"            2018
    ##  8 2018-07-08                27.4    61.6 日       " 7"            2018
    ##  9 2018-07-09                27.3    38.4 月       " 7"            2018
    ## 10 2018-07-10                28.5    33.1 火       " 7"            2018
    ## # … with 82 more rows
…
    ## Warning: All elements of `...` must be named.
    ## Did you want `data = c(type, role, source)`?
    
    ## Warning: All elements of `...` must be named.
    ## Did you want `data = c(type, role, source)`?

{:.input_area}
```R
df_beer_prep
```

    ## # A tibble: 92 x 11
    ##    date       temperature_ave… expense date_dow date_month date_year
    ##    <date>                <dbl>   <dbl> <fct>    <fct>          <dbl>
    ##  1 2018-07-01             28.1    58.0 日       " 7"            2018
    ##  2 2018-07-02             28.8    42.8 月       " 7"            2018
    ##  3 2018-07-03             28.4    23.9 火       " 7"            2018
    ##  4 2018-07-04             27.6    28.6 水       " 7"            2018
    ##  5 2018-07-05             26.7    35.4 木       " 7"            2018
    ##  6 2018-07-06             21.7    29.1 金       " 7"            2018
    ##  7 2018-07-07             25      53.9 土       " 7"            2018
    ##  8 2018-07-08             27.4    61.6 日       " 7"            2018
    ##  9 2018-07-09             27.3    38.4 月       " 7"            2018
    ## 10 2018-07-10             28.5    33.1 火       " 7"            2018
    ## # … with 82 more rows, and 5 more variables: date_JPKeirouNOhi <dbl>,
    ## #   date_JPShuubunNoHi <dbl>, date_JPUmiNoHi <dbl>, date_JPYamaNoHi <dbl>,
    ## #   is_obon <lgl>
…
df_beer_prep
```

    ## # A tibble: 92 x 4
    ##    expense is_weekday date_month temperature_average
    ##      <dbl>      <dbl> <fct>                    <dbl>
    ##  1    58.0          0 " 7"                      28.1
    ##  2    42.8          1 " 7"                      28.8
    ##  3    23.9          1 " 7"                      28.4
    ##  4    28.6          1 " 7"                      27.6
    ##  5    35.4          1 " 7"                      26.7
    ##  6    29.1          1 " 7"                      21.7
    ##  7    53.9          0 " 7"                      25  
    ##  8    61.6          0 " 7"                      27.4
    ##  9    38.4          1 " 7"                      27.3
    ## 10    33.1          1 " 7"                      28.5
    ## # … with 82 more rows
…
