…
    ## Warning: All elements of `...` must be named.
    ## Did you want `data = c(type, role, source)`?
    
    ## Warning: All elements of `...` must be named.
    ## Did you want `data = c(type, role, source)`?

    ## # A tibble: 48 x 3
    ##    expense temperature_average_poly_1 temperature_average_poly_2
    ##      <dbl>                      <dbl>                      <dbl>
    ##  1    19.8                    -0.204                      0.173 
    ##  2    20.7                    -0.206                      0.180 
    ##  3    22.3                    -0.117                     -0.0656
    ##  4    24.8                    -0.0359                    -0.170 
    ##  5    30.5                     0.0918                    -0.104 
    ##  6    32.9                     0.111                     -0.0692
    ##  7    43.3                     0.191                      0.141 
    ##  8    41.8                     0.200                      0.174 
    ##  9    28.1                     0.121                     -0.0494
    ## 10    24.8                     0.0396                    -0.165 
    ## # … with 38 more rows
…
    ## Warning: All elements of `...` must be named.
    ## Did you want `data = c(type, role, source)`?
    
    ## Warning: All elements of `...` must be named.
    ## Did you want `data = c(type, role, source)`?

    ## # A tibble: 48 x 3
    ##    expense temperature_average_ns_1 temperature_average_ns_2
    ##      <dbl>                    <dbl>                    <dbl>
    ##  1    19.8                   0.0699                  -0.0470
    ##  2    20.7                   0.0636                  -0.0428
    ##  3    22.3                   0.337                   -0.210 
    ##  4    24.8                   0.517                   -0.255 
    ##  5    30.5                   0.557                    0.0469
    ##  6    32.9                   0.538                    0.131 
    ##  7    43.3                   0.422                    0.537 
    ##  8    41.8                   0.405                    0.590 
    ##  9    28.1                   0.527                    0.176 
    ## 10    24.8                   0.579                   -0.136 
    ## # … with 38 more rows
…
    ## Warning: All elements of `...` must be named.
    ## Did you want `data = c(type, role, source)`?
    
    ## Warning: All elements of `...` must be named.
    ## Did you want `data = c(type, role, source)`?

    ## # A tibble: 8,476 x 1
    ##    distance_from_station
    ##    <fct>                
    ##  1 bin3                 
    ##  2 bin3                 
    ##  3 bin3                 
    ##  4 bin3                 
    ##  5 bin1                 
    ##  6 bin3                 
    ##  7 bin2                 
    ##  8 bin2                 
    ##  9 bin1                 
    ## 10 bin1                 
    ## # … with 8,466 more rows
…
{:.input_area}
```R
df_beer2018q2 %>% 
  recipe(expense ~ temperature_average +humidity_average_percent) %>% 
  step_interact(terms = ~ temperature_average:humidity_average_percent) %>% 
  prep() %>% 
  juice()
```

    ## Warning: All elements of `...` must be named.
    ## Did you want `data = c(type, role, source)`?

    ## # A tibble: 92 x 4
    ##    temperature_avera… humidity_average_… expense temperature_average_x_hum…
    ##                 <dbl>              <dbl>   <dbl>                      <dbl>
    ##  1               28.1                 75    58.0                      2108.
    ##  2               28.8                 70    42.8                      2016 
    ##  3               28.4                 69    23.9                      1960.
    ##  4               27.6                 75    28.6                      2070 
    ##  5               26.7                 79    35.4                      2109.
    ##  6               21.7                 99    29.1                      2148.
    ##  7               25                   86    53.9                      2150 
    ##  8               27.4                 79    61.6                      2165.
    ##  9               27.3                 86    38.4                      2348.
    ## 10               28.5                 78    33.1                      2223 
    ## # … with 82 more rows
…
