…
    ## Warning: All elements of `...` must be named.
    ## Did you want `data = c(type, role, source)`?
    
    ## Warning: All elements of `...` must be named.
    ## Did you want `data = c(type, role, source)`?
    
    ## Warning: All elements of `...` must be named.
    ## Did you want `data = c(type, role, source)`?
    
    ## Warning: All elements of `...` must be named.
    ## Did you want `data = c(type, role, source)`?

    ## # A tibble: 504 x 2
    ##    surrounding_present_usage     n
    ##    <chr>                     <int>
    ##  1 地域                       8430
    ##  2 一般                       5215
    ##  3 建ち並ぶ                   2890
    ##  4 店舗                       2003
    ##  5 商業                       1962
    ##  6 中規模                     1861
    ##  7 多い                       1785
    ##  8 する                       1773
    ##  9 られる                     1755
    ## 10 見                         1736
    ## # … with 494 more rows
…
    ## Warning: All elements of `...` must be named.
    ## Did you want `data = c(type, role, source)`?
    
    ## Warning: All elements of `...` must be named.
    ## Did you want `data = c(type, role, source)`?
    
    ## Warning: All elements of `...` must be named.
    ## Did you want `data = c(type, role, source)`?

    ## # A tibble: 8,476 x 510
    ##    .row_id tfidf_surroundi… tfidf_surroundi… tfidf_surroundi…
    ##      <int>            <dbl>            <dbl>            <dbl>
    ##  1   13534                0                0                0
    ##  2   13604                0                0                0
    ##  3   13605                0                0                0
    ##  4   13613                0                0                0
    ##  5   13620                0                0                0
    ##  6   13621                0                0                0
    ##  7   13640                0                0                0
    ##  8   13755                0                0                0
    ##  9   13758                0                0                0
    ## 10   13765                0                0                0
    ## # … with 8,466 more rows, and 506 more variables:
    ## #   tfidf_surrounding_present_usage_アパ <dbl>,
    ## #   tfidf_surrounding_present_usage_アパート <dbl>,
    ## #   tfidf_surrounding_present_usage_あり <dbl>,
    ## #   tfidf_surrounding_present_usage_ある <dbl>,
    ## #   tfidf_surrounding_present_usage_い <dbl>,
    ## #   tfidf_surrounding_present_usage_いる <dbl>,
    ## #   tfidf_surrounding_present_usage_オフィス <dbl>,
    ## #   tfidf_surrounding_present_usage_が <dbl>,
…
    ## Warning: All elements of `...` must be named.
    ## Did you want `data = c(type, role, source)`?
    
    ## Warning: All elements of `...` must be named.
    ## Did you want `data = c(type, role, source)`?

    ## # A tibble: 102 x 3
    ##    .row_id surrounding_present_usage     n
    ##      <int> <chr>                     <int>
    ##  1   18254 住宅                          3
    ##  2   18254 住宅                          3
    ##  3   18254 住宅                          3
    ##  4   19823 住宅                          2
    ##  5   19823 住宅                          2
    ##  6   23239 住宅                          2
    ##  7   23239 住宅                          2
    ##  8   21782 住宅                          2
    ##  9   21782 住宅                          2
    ## 10   16103 住宅                          2
    ## # … with 92 more rows
…
