…
{:.input_area}
```R
df_is_cat %>% 
  count(name_of_nearest_station, sort = TRUE)
```

    ## # A tibble: 1,481 x 2
    ##    name_of_nearest_station     n
    ##    <chr>                   <int>
    ##  1 本厚木                     59
    ##  2 水戸                       56
    ##  3 宇都宮                     55
    ##  4 平塚                       51
    ##  5 八王子                     48
    ##  6 柏                         41
    ##  7 川崎                       40
    ##  8 木更津                     36
    ##  9 千葉                       35
    ## 10 前橋                       34
    ## # … with 1,471 more rows
…
