…
    ## Warning: All elements of `...` must be named.
    ## Did you want `data = c(type, role, source)`?
    
    ## Warning: All elements of `...` must be named.
    ## Did you want `data = c(type, role, source)`?

    ## # A tibble: 8,476 x 28
    ##    .row_id .prefecture administrative_… posted_land_pri… name_of_nearest…
    ##      <int> <fct>       <fct>                       <int> <fct>           
    ##  1   13534 群馬県      10425                        4150 万座・鹿沢口    
    ##  2   13604 群馬県      10426                       39000 長野原草津口    
    ##  3   13605 群馬県      10426                       56800 長野原草津口    
    ##  4   13613 群馬県      10424                        2700 羽根尾          
    ##  5   13620 群馬県      10424                       12100 羽根尾          
    ##  6   13621 群馬県      10426                       29800 長野原草津口    
    ##  7   13640 群馬県      10424                       16400 群馬大津        
    ##  8   13755 群馬県      10382                       17400 下仁田          
    ##  9   13758 群馬県      10382                       25500 下仁田          
    ## 10   13765 群馬県      10382                       23300 下仁田          
    ## # … with 8,466 more rows, and 23 more variables:
    ## #   distance_from_station <int>, acreage <int>, current_use <fct>,
    ## #   building_structure <fct>, gas_facility <lgl>, sewage_facility <lgl>,
    ## #   proximity_with_transportation_facility <fct>, depth_ratio <dbl>,
    ## #   number_of_floors <int>, number_of_basement_floors <int>,
    ## #   use_district <fct>, building_coverage <dbl>, configuration <fct>,
    ## #   surrounding_present_usage <fct>, fire_area <fct>,
    ## #   urban_planning_area <fct>, parks_law <fct>, frontage_ratio <dbl>,
    ## #   floor_area_ratio <dbl>, common_surveyed_position <lgl>,
…
    ## Warning: All elements of `...` must be named.
    ## Did you want `data = c(type, role, source)`?
    
    ## Warning: All elements of `...` must be named.
    ## Did you want `data = c(type, role, source)`?

    ## # A tibble: 8,476 x 27
    ##    .row_id .prefecture administrative_… posted_land_pri… name_of_nearest…
    ##      <int> <fct>       <fct>                       <int> <fct>           
    ##  1   13534 群馬県      10425                        4150 万座・鹿沢口    
    ##  2   13604 群馬県      10426                       39000 長野原草津口    
    ##  3   13605 群馬県      10426                       56800 長野原草津口    
    ##  4   13613 群馬県      10424                        2700 羽根尾          
    ##  5   13620 群馬県      10424                       12100 羽根尾          
    ##  6   13621 群馬県      10426                       29800 長野原草津口    
    ##  7   13640 群馬県      10424                       16400 群馬大津        
    ##  8   13755 群馬県      10382                       17400 下仁田          
    ##  9   13758 群馬県      10382                       25500 下仁田          
    ## 10   13765 群馬県      10382                       23300 下仁田          
    ## # … with 8,466 more rows, and 22 more variables:
    ## #   distance_from_station <int>, acreage <int>, current_use <fct>,
    ## #   building_structure <fct>, gas_facility <lgl>, sewage_facility <lgl>,
    ## #   proximity_with_transportation_facility <fct>, depth_ratio <dbl>,
    ## #   number_of_floors <int>, number_of_basement_floors <int>,
    ## #   use_district <fct>, building_coverage <dbl>, configuration <fct>,
    ## #   surrounding_present_usage <fct>, fire_area <fct>,
    ## #   urban_planning_area <fct>, parks_law <fct>, frontage_ratio <dbl>,
    ## #   common_surveyed_position <lgl>, .longitude <dbl>, .latitude <dbl>,
…
